"draft_year","name","position","school","draft_round","draft_pick","draft_team","primary","secondary","tertiary","quaternary","division","location","mascot","sportslogos_name","logo","edp","est_error","upper","lower","edp_rank","lower_rank","upper_rank"
2018,"Sam Darnold","QB","USC","1",3,"New York Jets","#125740","#000000","#FFFFFF",NA,"AFC East","New York","Jets","New York Jets","http://content.sportslogos.net/logos/7/152/thumbs/15291162019.gif",1.53192530681498,0.723869621964502,0.463002151599776,3.2470421732516,1,1,1
2018,"Derwin James","S","Florida State","1",17,"Los Angeles Chargers","#002244","#0073cf","#ffb612","#001532","AFC West","Los Angeles","Chargers","Los Angeles Chargers","http://content.sportslogos.net/logos/7/6446/thumbs/644624152017.gif",8.94326958953159,4.25876552848021,2.6913001569902,18.9474697608386,10,10,10
2018,"Arden Key","DE","LSU","3",87,"Las Vegas Raiders","#a5acaf","#000000","#a6aeb0",NA,"AFC West","Las Vegas","Raiders","Oakland Raiders","http://content.sportslogos.net/logos/7/163/thumbs/g9mgk6x3ge26t44cccm9oq1vl.gif",91.4746506353557,47.0399387890502,26.0408427824336,204.757191785537,92,89,92
2018,"Tarvarus McFadden","CB","Florida State","Undrafted",257,"Undrafted",NA,NA,NA,NA,NA,NA,NA,NA,NA,154.49345096625,83.3541121341794,42.0120946806369,360.120660809495,152,150,154
2018,"Mike McGlinchey","OT","Notre Dame","1",9,"San Francisco 49ers","#aa0000","#b3995d","#000000","#a5acaf","NFC West","San Francisco","49ers","San Francisco 49ers","http://content.sportslogos.net/logos/7/179/thumbs/17994552009.gif",16.4809643615209,7.87850816376222,4.81983798351905,34.9467717502327,14,14,14
2018,"Josh Allen (WYO)","QB","Wyoming","1",7,"Buffalo Bills","#00338d","#c60c30","#0c2e82","#d50a0a","AFC East","Buffalo","Bills","Buffalo Bills","http://content.sportslogos.net/logos/7/149/thumbs/n0fd1z6xmhigb0eej3323ebwq.gif",6.11969788068599,2.91585614742722,1.83024772087761,13.1279010034027,6,6,6
2018,"Josh Rosen","QB","UCLA","1",10,"Arizona Cardinals","#97233f","#000000","#ffb612","#a5acaf","NFC West","Arizona","Cardinals","Arizona Cardinals","http://content.sportslogos.net/logos/7/177/thumbs/kwth8f1cfa2sch5xhjjfaof90.gif",11.6857476497051,5.62264543110357,3.45968585534923,24.8468184992319,11,11,11
2018,"Saquon Barkley","RB","Penn State","1",2,"New York Giants","#0b2265","#a71930","#a5acaf","#012352","NFC East","New York","Giants","New York Giants","http://content.sportslogos.net/logos/7/166/thumbs/919.gif",2.67568212594262,1.2899494046801,0.79609249713868,5.77985389413867,2,2,2
2018,"Martinas Rankin","OT","Mississippi State","3",80,"Houston Texans","#03202f","#a71930","#00071c","#a30d2d","AFC South","Houston","Texans","Houston Texans","http://content.sportslogos.net/logos/7/157/thumbs/570.gif",77.4968652769287,39.5224853456069,22.1899009052951,174.242279131728,73,73,77
2018,"Sam Hubbard","DE","Ohio State","3",77,"Cincinnati Bengals","#000000","#fb4f14","#d32f1e",NA,"AFC North","Cincinnati","Bengals","Cincinnati Bengals","http://content.sportslogos.net/logos/7/154/thumbs/403.gif",40.8098817127417,20.7408925488311,11.6363003774755,90.0973778457729,43,44,40
2018,"Tyquan Lewis","DE","Ohio State","2",64,"Indianapolis Colts","#002c5f","#a5acaf","#013369","#9ba1a2","AFC South","Indianapolis","Colts","Indianapolis Colts","http://content.sportslogos.net/logos/7/158/thumbs/593.gif",98.5678013281874,51.6153402161059,27.5972263922234,227.942278385643,95,96,95
2018,"Da'Shawn Hand","DE","Alabama","4",114,"Detroit Lions","#005a8b","#b0b7bc","#000000","#004e89","NFC North","Detroit","Lions","Detroit Lions","http://content.sportslogos.net/logos/7/170/thumbs/17013982017.gif",82.4259603274373,42.944901934196,22.4737084437346,186.45677409421,82,81,79
2018,"Kevin Toliver","CB","LSU","Undrafted",257,"Undrafted",NA,NA,NA,NA,NA,NA,NA,NA,NA,115.258958427353,63.0036445792335,31.1801910523168,272.459220791766,117,120,113
2018,"Minkah Fitzpatrick","S","Alabama","1",11,"Miami Dolphins","#008e97","#f58220","#005778",NA,"AFC East","Miami","Dolphins","Miami Dolphins","http://content.sportslogos.net/logos/7/150/thumbs/15073062018.gif",12.8615646103601,6.20877503016813,3.85972488386268,27.6441712040961,13,13,13
2018,"Bradley Chubb","DE","NC State","1",5,"Denver Broncos","#002244","#fb4f14","#00234c","#ff5200","AFC West","Denver","Broncos","Denver Broncos","http://content.sportslogos.net/logos/7/161/thumbs/9ebzja2zfeigaziee8y605aqp.gif",3.54335168986899,1.66784564346309,1.06077271030643,7.54449466486599,4,4,4
2018,"Quenton Nelson","G","Notre Dame","1",6,"Indianapolis Colts","#002c5f","#a5acaf","#013369","#9ba1a2","AFC South","Indianapolis","Colts","Indianapolis Colts","http://content.sportslogos.net/logos/7/158/thumbs/593.gif",5.82415984382814,2.81820280651495,1.69948196688273,12.4619381793686,5,5,5
2018,"Derrius Guice","RB","LSU","2",59,"Washington Redskins","#773141","#ffb612","#000000","#5b2b2f","NFC East","Washington","Redskins","Washington Redskins","http://content.sportslogos.net/logos/7/168/thumbs/im5xz2q9bjbg44xep08bf5czq.gif",31.2082456040436,15.0975808211841,9.14397630746842,67.451527065471,34,34,34
2018,"Jaire Alexander","CB","Louisville","1",18,"Green Bay Packers","#203731","#ffb612","#1c2d25","#eead1e","NFC North","Green Bay","Packers","Green Bay Packers","http://content.sportslogos.net/logos/7/171/thumbs/dcy03myfhffbki5d7il3.gif",25.0279913546631,12.0369295702522,7.40981377182867,52.9781670016229,25,24,25
2018,"Courtland Sutton","WR","SMU","2",40,"Denver Broncos","#002244","#fb4f14","#00234c","#ff5200","AFC West","Denver","Broncos","Denver Broncos","http://content.sportslogos.net/logos/7/161/thumbs/9ebzja2zfeigaziee8y605aqp.gif",29.9665606955,14.4587900881887,8.93670527328025,64.1154868285435,33,33,33
2018,"Christian Kirk","WR","Texas A&M","2",47,"Arizona Cardinals","#97233f","#000000","#ffb612","#a5acaf","NFC West","Arizona","Cardinals","Arizona Cardinals","http://content.sportslogos.net/logos/7/177/thumbs/kwth8f1cfa2sch5xhjjfaof90.gif",48.5633530079899,24.2602055726013,13.6906549059824,106.669633894802,46,46,45
2018,"Jordan Whitehead","S","Pittsburgh","4",117,"Tampa Bay Buccaneers","#d50a0a","#34302b","#000000","#ff7900","NFC South","Tampa Bay","Buccaneers","Tampa Bay Buccaneers","http://content.sportslogos.net/logos/7/176/thumbs/17636702014.gif",131.06975388439,70.770340723765,35.753254616929,305.837127680184,132,132,134
2018,"Connor Williams","OT","Texas","2",50,"Dallas Cowboys","#002244","#b0b7bc","#acc0c6","#a5acaf","NFC East","Dallas","Cowboys","Dallas Cowboys","http://content.sportslogos.net/logos/7/165/thumbs/406.gif",34.9356060570274,16.8956814098236,10.4199366848118,74.9957502895236,37,37,38
2018,"Calvin Ridley","WR","Alabama","1",26,"Atlanta Falcons","#a71930","#000000","#a5acaf","#a30d2d","NFC South","Atlanta","Falcons","Atlanta Falcons","http://content.sportslogos.net/logos/7/173/thumbs/299.gif",23.152782442638,11.0163242388661,7.00206212012329,49.6957732572348,21,21,21
2018,"Bo Scarbrough","RB","Alabama","7",236,"Dallas Cowboys","#002244","#b0b7bc","#acc0c6","#a5acaf","NFC East","Dallas","Cowboys","Dallas Cowboys","http://content.sportslogos.net/logos/7/165/thumbs/406.gif",155.491193948927,87.9281230936067,41.2702881087116,378.486755204525,154,157,153
2018,"Da'Ron Payne","DT","Alabama","1",13,"Washington Redskins","#773141","#ffb612","#000000","#5b2b2f","NFC East","Washington","Redskins","Washington Redskins","http://content.sportslogos.net/logos/7/168/thumbs/im5xz2q9bjbg44xep08bf5czq.gif",19.8495129915967,9.53086386316713,5.79876434090207,42.5274526219002,18,18,18
2018,"Harold Landry","LB","Boston College","2",41,"Tennessee Titans","#002244","#4b92db","#c60c30","#a5acaf","AFC South","Tennessee","Titans","Tennessee Titans","http://content.sportslogos.net/logos/7/160/thumbs/1053.gif",18.6448511393107,8.93935869705474,5.56286351481358,39.8141641631671,16,16,16
2018,"Nick Chubb","RB","Georgia","2",35,"Cleveland Browns","#fb4f14","#22150c","#a5acaf","#d32f1e","AFC North","Cleveland","Browns","Cleveland Browns","http://content.sportslogos.net/logos/7/155/thumbs/15578552015.gif",60.6131140981317,31.3160414198614,17.1317679280649,138.558292983684,57,57,57
2018,"Malik Jefferson","LB","Texas","3",78,"Cincinnati Bengals","#000000","#fb4f14","#d32f1e",NA,"AFC North","Cincinnati","Bengals","Cincinnati Bengals","http://content.sportslogos.net/logos/7/154/thumbs/403.gif",70.5920812433428,36.9621127087021,20.3447562565152,161.44219836737,64,67,65
2018,"James Washington","WR","Oklahoma State","2",60,"Pittsburgh Steelers","#000000","#ffb612","#c60c30","#00539b","AFC North","Pittsburgh","Steelers","Pittsburgh Steelers","http://content.sportslogos.net/logos/7/156/thumbs/970.gif",64.3251994368103,32.2514020302947,18.5631974727808,141.375624851586,59,59,59
2018,"Antonio Callaway","WR","Florida","4",105,"Cleveland Browns","#fb4f14","#22150c","#a5acaf","#d32f1e","AFC North","Cleveland","Browns","Cleveland Browns","http://content.sportslogos.net/logos/7/155/thumbs/15578552015.gif",141.58711386896,77.5661796508176,37.1493461556464,333.998924842259,145,143,142
2018,"Josh Sweat","DE","Florida State","4",130,"Philadelphia Eagles","#004953","#a5acaf","#acc0c6","#000000","NFC East","Philadelphia","Eagles","Philadelphia Eagles","http://content.sportslogos.net/logos/7/167/thumbs/960.gif",53.7921828740317,27.3318279849385,15.4283180432617,121.87375947138,54,55,53
2018,"D.J. Chark","WR","LSU","2",61,"Jacksonville Jaguars","#000000","#006778","#9f792c","#d7a22a","AFC South","Jacksonville","Jaguars","Jacksonville Jaguars","http://content.sportslogos.net/logos/7/159/thumbs/15988562013.gif",54.532159523326,27.6458948885774,15.8451103707365,121.78967249646,55,54,55
2018,"Vita Vea","DT","Washington","1",12,"Tampa Bay Buccaneers","#d50a0a","#34302b","#000000","#ff7900","NFC South","Tampa Bay","Buccaneers","Tampa Bay Buccaneers","http://content.sportslogos.net/logos/7/176/thumbs/17636702014.gif",12.0612014906471,5.7083437886825,3.71443994942608,25.5087661978343,12,12,12
2018,"Micah Kiser","LB","Virginia","5",147,"Los Angeles Rams","#002244","#b3995d","#001532","#af925d","NFC West","Los Angeles","Rams","Los Angeles Rams","http://content.sportslogos.net/logos/7/5941/thumbs/594179532017.gif",114.760001207218,60.6747706799827,30.7143045152672,262.760267187001,115,112,109
2018,"Will Clapp","C","LSU","7",245,"New Orleans Saints","#9f8958","#000000",NA,NA,"NFC South","New Orleans","Saints","New Orleans Saints","http://content.sportslogos.net/logos/7/175/thumbs/907.gif",158.466783481043,87.7230634201998,42.972384564338,376.132586390914,155,155,157
2018,"Mason Rudolph","QB","Oklahoma State","3",76,"Pittsburgh Steelers","#000000","#ffb612","#c60c30","#00539b","AFC North","Pittsburgh","Steelers","Pittsburgh Steelers","http://content.sportslogos.net/logos/7/156/thumbs/970.gif",39.0180178027029,18.7759149379004,11.6992392005275,82.0832056462121,40,40,41
2018,"Billy Price","C","Ohio State","1",21,"Cincinnati Bengals","#000000","#fb4f14","#d32f1e",NA,"AFC North","Cincinnati","Bengals","Cincinnati Bengals","http://content.sportslogos.net/logos/7/154/thumbs/403.gif",40.688849725896,19.9767705032936,11.8894643156342,88.5623567784811,42,41,43
2018,"Maurice Hurst","DT","Michigan","5",140,"Las Vegas Raiders","#a5acaf","#000000","#a6aeb0",NA,"AFC West","Las Vegas","Raiders","Oakland Raiders","http://content.sportslogos.net/logos/7/163/thumbs/g9mgk6x3ge26t44cccm9oq1vl.gif",35.1459085268358,17.3653237354231,10.3339615785375,76.6323100494899,38,38,37
2018,"Duke Ejiofor","DE","Wake Forest","6",177,"Houston Texans","#03202f","#a71930","#00071c","#a30d2d","AFC South","Houston","Texans","Houston Texans","http://content.sportslogos.net/logos/7/157/thumbs/570.gif",109.847725065396,56.7479334772235,32.1496797104056,250.18677097794,107,106,122
2018,"Ronnie Harrison","S","Alabama","3",93,"Jacksonville Jaguars","#000000","#006778","#9f792c","#d7a22a","AFC South","Jacksonville","Jaguars","Jacksonville Jaguars","http://content.sportslogos.net/logos/7/159/thumbs/15988562013.gif",52.4882566540447,26.6229818359406,15.2257572970541,116.584687313938,50,50,51
2018,"Ronald Jones","RB","USC","2",38,"Tampa Bay Buccaneers","#d50a0a","#34302b","#000000","#ff7900","NFC South","Tampa Bay","Buccaneers","Tampa Bay Buccaneers","http://content.sportslogos.net/logos/7/176/thumbs/17636702014.gif",50.60152426873,25.4681750910342,14.8532739664992,111.448695128366,47,47,48
2018,"Rashaan Evans","LB","Alabama","1",22,"Tennessee Titans","#002244","#4b92db","#c60c30","#a5acaf","AFC South","Tennessee","Titans","Tennessee Titans","http://content.sportslogos.net/logos/7/160/thumbs/1053.gif",23.552807909489,11.1634396555614,7.02777437016619,49.9557891734469,22,22,22
2018,"Lorenzo Carter","LB","Georgia","3",66,"New York Giants","#0b2265","#a71930","#a5acaf","#012352","NFC East","New York","Giants","New York Giants","http://content.sportslogos.net/logos/7/166/thumbs/919.gif",53.6212065428033,26.8715749976158,15.1731289840449,118.356059442178,53,51,50
2018,"Tyrell Crosby","OT","Oregon","5",153,"Detroit Lions","#005a8b","#b0b7bc","#000000","#004e89","NFC North","Detroit","Lions","Detroit Lions","http://content.sportslogos.net/logos/7/170/thumbs/17013982017.gif",53.4975821655746,27.1984966624768,15.5814754917939,119.250120916464,51,52,54
2018,"Skai Moore","LB","South Carolina","Undrafted",257,"Undrafted",NA,NA,NA,NA,NA,NA,NA,NA,NA,140.920746045274,87.3597936208326,33.1281779724853,362.818179657079,144,151,128
2018,"Frank Ragnow","C","Arkansas","1",20,"Detroit Lions","#005a8b","#b0b7bc","#000000","#004e89","NFC North","Detroit","Lions","Detroit Lions","http://content.sportslogos.net/logos/7/170/thumbs/17013982017.gif",25.2808253525854,12.2712250453643,7.36309244215186,55.1249226520685,26,27,24
2018,"Lamar Jackson (LOU)","QB","Louisville","1",32,"Baltimore Ravens","#241773","#000000","#9e7c0c","#c60c30","AFC North","Baltimore","Ravens","Baltimore Ravens","http://content.sportslogos.net/logos/7/153/thumbs/318.gif",19.6557089815424,9.42769859430516,5.96773737452307,42.381182405465,17,17,19
2018,"Josh Jackson","CB","Iowa","2",45,"Green Bay Packers","#203731","#ffb612","#1c2d25","#eead1e","NFC North","Green Bay","Packers","Green Bay Packers","http://content.sportslogos.net/logos/7/171/thumbs/dcy03myfhffbki5d7il3.gif",27.9899926231422,13.1851452612099,8.63325437345322,58.9458116699565,30,30,32
2018,"Denzel Ward","CB","Ohio State","1",4,"Cleveland Browns","#fb4f14","#22150c","#a5acaf","#d32f1e","AFC North","Cleveland","Browns","Cleveland Browns","http://content.sportslogos.net/logos/7/155/thumbs/15578552015.gif",8.6875214772092,4.17500970420595,2.58784187124677,18.632159449793,8,8,8
2018,"Justin Reid","S","Stanford","3",68,"Houston Texans","#03202f","#a71930","#00071c","#a30d2d","AFC South","Houston","Texans","Houston Texans","http://content.sportslogos.net/logos/7/157/thumbs/570.gif",35.7137219811404,17.3322341696423,10.7299357334798,77.0950846373989,39,39,39
2018,"Taven Bryan","DT","Florida","1",29,"Jacksonville Jaguars","#000000","#006778","#9f792c","#d7a22a","AFC South","Jacksonville","Jaguars","Jacksonville Jaguars","http://content.sportslogos.net/logos/7/159/thumbs/15988562013.gif",24.4007408583464,11.761907696852,7.34561321213476,51.8842393525428,23,23,23
2018,"Baker Mayfield","QB","Oklahoma","1",1,"Cleveland Browns","#fb4f14","#22150c","#a5acaf","#d32f1e","AFC North","Cleveland","Browns","Cleveland Browns","http://content.sportslogos.net/logos/7/155/thumbs/15578552015.gif",3.41591653722757,1.61142608176067,1.02565461984483,7.18842228267967,3,3,3
2018,"Carlton Davis","CB","Auburn","2",63,"Tampa Bay Buccaneers","#d50a0a","#34302b","#000000","#ff7900","NFC South","Tampa Bay","Buccaneers","Tampa Bay Buccaneers","http://content.sportslogos.net/logos/7/176/thumbs/17636702014.gif",58.7073383657765,29.4619716705349,17.0097867217127,128.333444814927,56,56,56
2018,"Donte Jackson","CB","LSU","2",55,"Carolina Panthers","#0085ca","#000000","#bfc0bf",NA,"NFC South","Carolina","Panthers","Carolina Panthers","http://content.sportslogos.net/logos/7/174/thumbs/f1wggq2k8ql88fe33jzhw641u.gif",53.6145487202315,27.1921209808167,15.0825807789327,121.05482683326,52,53,49
2018,"Roquan Smith","LB","Georgia","1",8,"Chicago Bears","#0b162a","#c83803",NA,NA,"NFC North","Chicago","Bears","Chicago Bears","http://content.sportslogos.net/logos/7/169/thumbs/364.gif",7.49680455204166,3.57344859523055,2.27586409932142,16.0157788268143,7,7,7
2018,"Mike Hughes","CB","Central Florida","1",30,"Minnesota Vikings","#4f2683","#ffc62f","#e9bf9b","#000000","NFC North","Minnesota","Vikings","Minnesota Vikings","http://content.sportslogos.net/logos/7/172/thumbs/17227042013.gif",28.1138772337455,13.8179402631809,8.29038124078352,60.791180836242,32,32,30
2018,"Hayden Hurst","TE","South Carolina","1",25,"Baltimore Ravens","#241773","#000000","#9e7c0c","#c60c30","AFC North","Baltimore","Ravens","Baltimore Ravens","http://content.sportslogos.net/logos/7/153/thumbs/318.gif",26.0020557307856,12.6478686132016,7.71564103617886,56.2534795663596,28,29,28
2018,"Orlando Brown","OT","Oklahoma","3",83,"Baltimore Ravens","#241773","#000000","#9e7c0c","#c60c30","AFC North","Baltimore","Ravens","Baltimore Ravens","http://content.sportslogos.net/logos/7/153/thumbs/318.gif",79.0316187307496,40.1325598378786,22.4086334054809,177.462811804883,77,77,78
2018,"J.C. Jackson","CB","Maryland","Undrafted",257,"Undrafted",NA,NA,NA,NA,NA,NA,NA,NA,NA,110.618833971167,58.0522948922048,31.387501997074,253.870230130427,108,108,115
2018,"DeShon Elliott","S","Texas","6",190,"Baltimore Ravens","#241773","#000000","#9e7c0c","#c60c30","AFC North","Baltimore","Ravens","Baltimore Ravens","http://content.sportslogos.net/logos/7/153/thumbs/318.gif",103.127301950522,53.7540666706348,28.5078844143331,233.408182344719,102,99,101
2018,"Derrick Nnadi","DT","Florida State","3",75,"Kansas City Chiefs","#e31837","#ffb612","#000000","#eead1e","AFC West","Kansas City","Chiefs","Kansas City Chiefs","http://content.sportslogos.net/logos/7/162/thumbs/857.gif",87.7176311500668,47.1827030003415,24.6149255707829,204.897347912947,89,90,90
2018,"Armani Watts","S","Texas A&M","4",124,"Kansas City Chiefs","#e31837","#ffb612","#000000","#eead1e","AFC West","Kansas City","Chiefs","Kansas City Chiefs","http://content.sportslogos.net/logos/7/162/thumbs/857.gif",122.911525921201,69.7490377681134,31.9317354844941,298.946348281943,126,129,121
2018,"Luke Falk","QB","Washington State","6",199,"Tennessee Titans","#002244","#4b92db","#c60c30","#a5acaf","AFC South","Tennessee","Titans","Tennessee Titans","http://content.sportslogos.net/logos/7/160/thumbs/1053.gif",84.9122789957178,44.4118220690165,23.6288489385239,193.89873858332,86,85,87
2018,"Tony Brown","CB","Alabama","Undrafted",257,"Undrafted",NA,NA,NA,NA,NA,NA,NA,NA,NA,111.96333630502,59.3679815890941,30.5521206333714,254.508323736616,109,110,108
2018,"Dorance Armstrong","DE","Kansas","4",116,"Dallas Cowboys","#002244","#b0b7bc","#acc0c6","#a5acaf","NFC East","Dallas","Cowboys","Dallas Cowboys","http://content.sportslogos.net/logos/7/165/thumbs/406.gif",112.373998864311,58.5788374415296,31.5734162838467,254.252367593643,111,109,119
2018,"Equanimeous St. Brown","WR","Notre Dame","6",207,"Green Bay Packers","#203731","#ffb612","#1c2d25","#eead1e","NFC North","Green Bay","Packers","Green Bay Packers","http://content.sportslogos.net/logos/7/171/thumbs/dcy03myfhffbki5d7il3.gif",116.112107917295,60.302444906348,31.7393761115195,261.254620774617,118,111,120
2018,"Deon Cain","WR","Clemson","6",185,"Indianapolis Colts","#002c5f","#a5acaf","#013369","#9ba1a2","AFC South","Indianapolis","Colts","Indianapolis Colts","http://content.sportslogos.net/logos/7/158/thumbs/593.gif",84.7056892045488,44.9608705229693,23.3977704934801,194.625406693974,85,86,84
2018,"Mike Gesicki","TE","Penn State","2",42,"Miami Dolphins","#008e97","#f58220","#005778",NA,"AFC East","Miami","Dolphins","Miami Dolphins","http://content.sportslogos.net/logos/7/150/thumbs/15073062018.gif",41.0165066506611,20.2602709971112,12.270214658053,89.823365365247,44,43,44
2018,"Jerome Baker","LB","Ohio State","3",73,"Miami Dolphins","#008e97","#f58220","#005778",NA,"AFC East","Miami","Dolphins","Miami Dolphins","http://content.sportslogos.net/logos/7/150/thumbs/15073062018.gif",78.3600879404815,40.6512776421968,21.9036630829148,177.402778417365,75,76,75
2018,"Andrew Brown","DE","Virginia","5",158,"Cincinnati Bengals","#000000","#fb4f14","#d32f1e",NA,"AFC North","Cincinnati","Bengals","Cincinnati Bengals","http://content.sportslogos.net/logos/7/154/thumbs/403.gif",135.644932222681,72.6801245026905,37.384632615175,319.077436476816,138,138,144
2018,"Royce Freeman","RB","Oregon","3",71,"Denver Broncos","#002244","#fb4f14","#00234c","#ff5200","AFC West","Denver","Broncos","Denver Broncos","http://content.sportslogos.net/logos/7/161/thumbs/9ebzja2zfeigaziee8y605aqp.gif",99.6494127479973,53.0308745442818,27.7078512839491,228.518667094232,97,97,96
2018,"Marcell Frazier","DE","Missouri","Undrafted",257,"Undrafted",NA,NA,NA,NA,NA,NA,NA,NA,NA,158.801365704205,89.983404248254,41.1957730832944,380.622321350586,156,158,152
2018,"Marcus Allen","S","Penn State","5",148,"Pittsburgh Steelers","#000000","#ffb612","#c60c30","#00539b","AFC North","Pittsburgh","Steelers","Pittsburgh Steelers","http://content.sportslogos.net/logos/7/156/thumbs/970.gif",104.438697301041,55.2124133253217,28.8339199734473,239.857417663687,103,104,103
2018,"Quenton Meeks","CB","Stanford","Undrafted",257,"Undrafted",NA,NA,NA,NA,NA,NA,NA,NA,NA,129.506227952015,71.3976018270987,35.8553411685876,305.163839123466,130,130,136
2018,"Jack Cichy","LB","Wisconsin","6",202,"Tampa Bay Buccaneers","#d50a0a","#34302b","#000000","#ff7900","NFC South","Tampa Bay","Buccaneers","Tampa Bay Buccaneers","http://content.sportslogos.net/logos/7/176/thumbs/17636702014.gif",162.022529180294,89.652527428857,43.2354798886572,385.098030543713,159,159,161
2018,"Jamarco Jones","OT","Ohio State","5",168,"Seattle Seahawks","#002244","#69be28","#a5acaf","#001532","NFC West","Seattle","Seahawks","Seattle Seahawks","http://content.sportslogos.net/logos/7/180/thumbs/pfiobtreaq7j0pzvadktsc6jv.gif",79.3565544797825,41.1503611409771,22.0440809576614,180.095501654189,79,78,76
2018,"Trenton Thompson","DT","Georgia","Undrafted",257,"Undrafted",NA,NA,NA,NA,NA,NA,NA,NA,NA,122.84269233581,65.7923874503397,33.1236897976276,285.522302745405,125,125,127
2018,"Dante Pettis","WR","Washington","2",44,"San Francisco 49ers","#aa0000","#b3995d","#000000","#a5acaf","NFC West","San Francisco","49ers","San Francisco 49ers","http://content.sportslogos.net/logos/7/179/thumbs/17994552009.gif",78.0442424142563,39.9570094343177,22.6442527539538,174.606256080109,74,74,80
2018,"Josey Jewell","LB","Iowa","4",106,"Denver Broncos","#002244","#fb4f14","#00234c","#ff5200","AFC West","Denver","Broncos","Denver Broncos","http://content.sportslogos.net/logos/7/161/thumbs/9ebzja2zfeigaziee8y605aqp.gif",82.4044153898274,41.5048278941635,23.2671614558942,182.506213720507,81,79,83
2018,"Mark Andrews","TE","Oklahoma","3",86,"Baltimore Ravens","#241773","#000000","#9e7c0c","#c60c30","AFC North","Baltimore","Ravens","Baltimore Ravens","http://content.sportslogos.net/logos/7/153/thumbs/318.gif",71.7782256966815,36.9181577545354,19.8837455005664,160.682698343429,68,65,64
2018,"Duke Dawson","CB","Florida","2",56,"New England Patriots","#002244","#c60c30","#b0b7bc","#001532","AFC East","New England","Patriots","New England Patriots","http://content.sportslogos.net/logos/7/151/thumbs/y71myf8mlwlk8lbgagh3fd5e0.gif",87.0785071333054,46.9605452651476,23.5100015839912,203.47322659684,88,88,86
2018,"Simmie Cobbs","WR","Indiana","Undrafted",257,"Undrafted",NA,NA,NA,NA,NA,NA,NA,NA,NA,116.455145660826,61.3366787780304,30.8814194118553,265.21158051266,120,114,110
2018,"Tremaine Edmunds","LB","Virginia Tech","1",16,"Buffalo Bills","#00338d","#c60c30","#0c2e82","#d50a0a","AFC East","Buffalo","Bills","Buffalo Bills","http://content.sportslogos.net/logos/7/149/thumbs/n0fd1z6xmhigb0eej3323ebwq.gif",8.73593187476985,4.19535868997142,2.62325891935729,18.7683843800416,9,9,9
2018,"Troy Fumagalli","TE","Wisconsin","5",156,"Denver Broncos","#002244","#fb4f14","#00234c","#ff5200","AFC West","Denver","Broncos","Denver Broncos","http://content.sportslogos.net/logos/7/161/thumbs/9ebzja2zfeigaziee8y605aqp.gif",154.763424090548,85.669238369382,43.2131746047374,369.856529139458,153,153,159
2018,"Will Hernandez","G","UTEP","2",34,"New York Giants","#0b2265","#a71930","#a5acaf","#012352","NFC East","New York","Giants","New York Giants","http://content.sportslogos.net/logos/7/166/thumbs/919.gif",26.0153454326246,12.3903603042024,7.95315438880578,55.9422659484,29,28,29
2018,"Auden Tate","WR","Florida State","7",253,"Cincinnati Bengals","#000000","#fb4f14","#d32f1e",NA,"AFC North","Cincinnati","Bengals","Cincinnati Bengals","http://content.sportslogos.net/logos/7/154/thumbs/403.gif",165.940260303261,93.4955184256106,43.4480892183771,397.044783072787,165,162,162
2018,"Jaylen Samuels","FB","NC State","5",165,"Pittsburgh Steelers","#000000","#ffb612","#c60c30","#00539b","AFC North","Pittsburgh","Steelers","Pittsburgh Steelers","http://content.sportslogos.net/logos/7/156/thumbs/970.gif",139.283845322676,75.3234299099464,38.5846655610505,324.548923741427,142,140,146
2018,"Ogbonnia Okoronkwo","LB","Oklahoma","5",160,"Los Angeles Rams","#002244","#b3995d","#001532","#af925d","NFC West","Los Angeles","Rams","Los Angeles Rams","http://content.sportslogos.net/logos/7/5941/thumbs/594179532017.gif",105.462348662117,52.8577056559559,29.9925767404122,232.654973285761,104,98,107
2018,"Braden Smith","G","Auburn","2",37,"Indianapolis Colts","#002c5f","#a5acaf","#013369","#9ba1a2","AFC South","Indianapolis","Colts","Indianapolis Colts","http://content.sportslogos.net/logos/7/158/thumbs/593.gif",70.8969208573783,36.333992360328,20.7981970064512,161.832722784866,66,68,69
2018,"Quin Blanding","S","Virginia","Undrafted",257,"Undrafted",NA,NA,NA,NA,NA,NA,NA,NA,NA,143.176999485029,79.578412078175,37.4238913029488,345.093432651917,146,148,145
2018,"Michael Gallup","WR","Colorado State","3",81,"Dallas Cowboys","#002244","#b0b7bc","#acc0c6","#a5acaf","NFC East","Dallas","Cowboys","Dallas Cowboys","http://content.sportslogos.net/logos/7/165/thumbs/406.gif",84.0130940478866,43.3020498855203,23.4456047665434,188.287004428916,84,82,85
2018,"Isaiah Oliver","CB","Colorado","2",58,"Atlanta Falcons","#a71930","#000000","#a5acaf","#a30d2d","NFC South","Atlanta","Falcons","Atlanta Falcons","http://content.sportslogos.net/logos/7/173/thumbs/299.gif",40.3669725826177,19.9900799960843,11.7775523201111,89.4372364349715,41,42,42
2018,"Marcus Davenport","DE","UTSA","1",14,"New Orleans Saints","#9f8958","#000000",NA,NA,"NFC South","New Orleans","Saints","New Orleans Saints","http://content.sportslogos.net/logos/7/175/thumbs/907.gif",17.1807620609745,8.12184455738495,5.125474510446,36.7882881080231,15,15,15
2018,"Dallas Goedert","TE","South Dakota State","2",49,"Philadelphia Eagles","#004953","#a5acaf","#acc0c6","#000000","NFC East","Philadelphia","Eagles","Philadelphia Eagles","http://content.sportslogos.net/logos/7/167/thumbs/960.gif",32.3653691858804,15.7782321767399,9.60819937844298,70.2382528832189,35,35,35
2018,"Chukwuma Okorafor","OT","Western Michigan","3",92,"Pittsburgh Steelers","#000000","#ffb612","#c60c30","#00539b","AFC North","Pittsburgh","Steelers","Pittsburgh Steelers","http://content.sportslogos.net/logos/7/156/thumbs/970.gif",102.946688783906,53.2188730864906,28.8147412449364,234.508734427373,99,100,102
2018,"Deontay Burnett","WR","USC","Undrafted",257,"Undrafted",NA,NA,NA,NA,NA,NA,NA,NA,NA,159.854854225429,85.5020246069994,43.5591782868093,367.496172933052,157,152,164
2018,"Uchenna Nwosu","LB","USC","2",48,"Los Angeles Chargers","#002244","#0073cf","#ffb612","#001532","AFC West","Los Angeles","Chargers","Los Angeles Chargers","http://content.sportslogos.net/logos/7/6446/thumbs/644624152017.gif",69.4355465689614,34.6265517615634,20.3530954893362,153.97171268993,62,61,66
2018,"Anthony Miller","WR","Memphis","2",51,"Chicago Bears","#0b162a","#c83803",NA,NA,"NFC North","Chicago","Bears","Chicago Bears","http://content.sportslogos.net/logos/7/169/thumbs/364.gif",70.6815520700319,35.760631971085,20.6663742658809,156.234246638682,65,62,67
2018,"Desmond Harrison","OT","West Georgia","Undrafted",257,"Undrafted",NA,NA,NA,NA,NA,NA,NA,NA,NA,98.7895841737037,52.2486692471156,27.7199331266847,226.154520144375,96,95,97
2018,"Kolton Miller","OT","UCLA","1",15,"Las Vegas Raiders","#a5acaf","#000000","#a6aeb0",NA,"AFC West","Las Vegas","Raiders","Oakland Raiders","http://content.sportslogos.net/logos/7/163/thumbs/g9mgk6x3ge26t44cccm9oq1vl.gif",24.773010888584,11.8315183201399,7.51243109442344,52.9801862149646,24,25,26
2018,"Brian O'Neill","OT","Pittsburgh","2",62,"Minnesota Vikings","#4f2683","#ffc62f","#e9bf9b","#000000","NFC North","Minnesota","Vikings","Minnesota Vikings","http://content.sportslogos.net/logos/7/172/thumbs/17227042013.gif",75.3551374370455,37.858550489551,21.3733071825169,167.89229357925,71,71,72
2018,"Mason Cole","C","Michigan","3",97,"Arizona Cardinals","#97233f","#000000","#ffb612","#a5acaf","NFC West","Arizona","Cardinals","Arizona Cardinals","http://content.sportslogos.net/logos/7/177/thumbs/kwth8f1cfa2sch5xhjjfaof90.gif",116.407929169499,62.8029812149936,31.2360899455536,271.94463315889,119,119,114
2018,"Harrison Phillips","DT","Stanford","3",96,"Buffalo Bills","#00338d","#c60c30","#0c2e82","#d50a0a","AFC East","Buffalo","Bills","Buffalo Bills","http://content.sportslogos.net/logos/7/149/thumbs/n0fd1z6xmhigb0eej3323ebwq.gif",46.6270768939446,23.4661117061915,13.7508120995643,103.173119335938,45,45,46
2018,"Dorian O'Daniel","LB","Clemson","3",100,"Kansas City Chiefs","#e31837","#ffb612","#000000","#eead1e","AFC West","Kansas City","Chiefs","Kansas City Chiefs","http://content.sportslogos.net/logos/7/162/thumbs/857.gif",132.574240865153,71.3164994825017,36.7306102454051,309.10072788256,133,133,140
2018,"Kerryon Johnson","RB","Auburn","2",43,"Detroit Lions","#005a8b","#b0b7bc","#000000","#004e89","NFC North","Detroit","Lions","Detroit Lions","http://content.sportslogos.net/logos/7/170/thumbs/17013982017.gif",67.8459682710687,35.4242687109206,19.115277153394,156.885622143188,61,63,60
2018,"Marcell Ateman","WR","Oklahoma State","7",228,"Las Vegas Raiders","#a5acaf","#000000","#a6aeb0",NA,"AFC West","Las Vegas","Raiders","Oakland Raiders","http://content.sportslogos.net/logos/7/163/thumbs/g9mgk6x3ge26t44cccm9oq1vl.gif",120.126704746515,66.220757895006,32.6272455254343,284.732411227841,123,124,125
2018,"Jeff Holland","LB","Auburn","Undrafted",257,"Undrafted",NA,NA,NA,NA,NA,NA,NA,NA,NA,117.620418138356,63.273339210209,31.5539822409053,273.160981130531,122,121,118
2018,"Nick Nelson","CB","Wisconsin","4",110,"Las Vegas Raiders","#a5acaf","#000000","#a6aeb0",NA,"AFC West","Las Vegas","Raiders","Oakland Raiders","http://content.sportslogos.net/logos/7/163/thumbs/g9mgk6x3ge26t44cccm9oq1vl.gif",133.236763077123,73.8491697761941,35.614966560913,318.810699451764,134,137,133
2018,"D.J. Moore","WR","Maryland","1",24,"Carolina Panthers","#0085ca","#000000","#bfc0bf",NA,"NFC South","Carolina","Panthers","Carolina Panthers","http://content.sportslogos.net/logos/7/174/thumbs/f1wggq2k8ql88fe33jzhw641u.gif",21.5162666232405,10.3509922769598,6.46791745155919,46.3226371805739,20,20,20
2018,"Isaiah Wynn","OT","Georgia","1",23,"New England Patriots","#002244","#c60c30","#b0b7bc","#001532","AFC East","New England","Patriots","New England Patriots","http://content.sportslogos.net/logos/7/151/thumbs/y71myf8mlwlk8lbgagh3fd5e0.gif",28.1120454915308,13.6353522170292,8.34644989531707,60.4840236520442,31,31,31
2018,"M.J. Stewart","CB","North Carolina","2",53,"Tampa Bay Buccaneers","#d50a0a","#34302b","#000000","#ff7900","NFC South","Tampa Bay","Buccaneers","Tampa Bay Buccaneers","http://content.sportslogos.net/logos/7/176/thumbs/17636702014.gif",88.2846300392105,47.4553093587014,23.6727273056779,206.189307757996,90,92,88
2018,"Leighton Vander Esch","LB","Boise State","1",19,"Dallas Cowboys","#002244","#b0b7bc","#acc0c6","#a5acaf","NFC East","Dallas","Cowboys","Dallas Cowboys","http://content.sportslogos.net/logos/7/165/thumbs/406.gif",19.851559770932,9.59546991774392,5.67674347127357,42.6497672424578,19,19,17
2018,"Kameron Kelly","CB","San Diego State","Undrafted",257,"Undrafted",NA,NA,NA,NA,NA,NA,NA,NA,NA,173.436238123324,97.8325927975816,44.86064748187,421.437149929805,166,166,167
2018,"Joseph Noteboom","OT","TCU","3",89,"Los Angeles Rams","#002244","#b3995d","#001532","#af925d","NFC West","Los Angeles","Rams","Los Angeles Rams","http://content.sportslogos.net/logos/7/5941/thumbs/594179532017.gif",95.1652671680879,50.2648298365121,26.6116987474412,219.650856241726,94,94,94
2018,"Darius Leonard","LB","South Carolina State","2",36,"Indianapolis Colts","#002c5f","#a5acaf","#013369","#9ba1a2","AFC South","Indianapolis","Colts","Indianapolis Colts","http://content.sportslogos.net/logos/7/158/thumbs/593.gif",79.3180082847896,41.733782155916,21.8656960291211,182.644733263361,78,80,74
2018,"Rasheem Green","DE","USC","3",79,"Seattle Seahawks","#002244","#69be28","#a5acaf","#001532","NFC West","Seattle","Seahawks","Seattle Seahawks","http://content.sportslogos.net/logos/7/180/thumbs/pfiobtreaq7j0pzvadktsc6jv.gif",75.766373911934,38.9458497098723,21.3553849826888,170.276209442659,72,72,71
2018,"James Daniels","C","Iowa","2",39,"Chicago Bears","#0b162a","#c83803",NA,NA,"NFC North","Chicago","Bears","Chicago Bears","http://content.sportslogos.net/logos/7/169/thumbs/364.gif",25.4254489479076,12.1884248840647,7.66590933727084,54.7883600855343,27,26,27
2018,"Hercules Mata'afa","DE","Washington State","Undrafted",257,"Undrafted",NA,NA,NA,NA,NA,NA,NA,NA,NA,145.952940199029,77.0867681342612,40.4456554689031,337.264664872536,148,144,150
2018,"Brandon Parker","OT","North Carolina A&T","3",65,"Las Vegas Raiders","#a5acaf","#000000","#a6aeb0",NA,"AFC West","Las Vegas","Raiders","Oakland Raiders","http://content.sportslogos.net/logos/7/163/thumbs/g9mgk6x3ge26t44cccm9oq1vl.gif",162.854001381468,89.6248600524382,44.3640137170147,386.482943471317,160,160,166
2018,"Darius Phillips","CB","Western Michigan","5",170,"Cincinnati Bengals","#000000","#fb4f14","#d32f1e",NA,"AFC North","Cincinnati","Bengals","Cincinnati Bengals","http://content.sportslogos.net/logos/7/154/thumbs/403.gif",164.233860693106,91.7654777196851,42.9561073635719,397.756943379704,163,164,156
2018,"Tim Settle","DT","Virginia Tech","5",163,"Washington Redskins","#773141","#ffb612","#000000","#5b2b2f","NFC East","Washington","Redskins","Washington Redskins","http://content.sportslogos.net/logos/7/168/thumbs/im5xz2q9bjbg44xep08bf5czq.gif",89.6549148021368,47.4643064850732,24.9096574273839,205.490859782144,91,91,91
2018,"Anthony Averett","CB","Alabama","4",118,"Baltimore Ravens","#241773","#000000","#9e7c0c","#c60c30","AFC North","Baltimore","Ravens","Baltimore Ravens","http://content.sportslogos.net/logos/7/153/thumbs/318.gif",73.3823199697418,38.3496844385178,20.7029574543377,166.918802477161,69,69,68
2018,"Rashaad Penny","RB","San Diego State","1",27,"Seattle Seahawks","#002244","#69be28","#a5acaf","#001532","NFC West","Seattle","Seahawks","Seattle Seahawks","http://content.sportslogos.net/logos/7/180/thumbs/pfiobtreaq7j0pzvadktsc6jv.gif",61.2370451052663,31.5336779191961,17.8898146306994,138.962806545057,58,58,58
2018,"Alex Cappa","OT","Humboldt State","3",94,"Tampa Bay Buccaneers","#d50a0a","#34302b","#000000","#ff7900","NFC South","Tampa Bay","Buccaneers","Tampa Bay Buccaneers","http://content.sportslogos.net/logos/7/176/thumbs/17636702014.gif",107.954417437402,57.3781858723083,29.571034394513,246.793083947502,106,105,106
2018,"Akrum Wadley","RB","Iowa","Undrafted",257,"Undrafted",NA,NA,NA,NA,NA,NA,NA,NA,NA,163.16801138348,93.9013253215563,42.6124901351044,397.546552746386,161,163,155
2018,"J'Mon Moore","WR","Missouri","4",133,"Green Bay Packers","#203731","#ffb612","#1c2d25","#eead1e","NFC North","Green Bay","Packers","Green Bay Packers","http://content.sportslogos.net/logos/7/171/thumbs/dcy03myfhffbki5d7il3.gif",143.221447512614,79.164627165778,38.7295642271306,337.335390622099,147,145,147
2018,"Sony Michel","RB","Georgia","1",31,"New England Patriots","#002244","#c60c30","#b0b7bc","#001532","AFC East","New England","Patriots","New England Patriots","http://content.sportslogos.net/logos/7/151/thumbs/y71myf8mlwlk8lbgagh3fd5e0.gif",33.7382189991577,16.6739811113704,9.85593033609503,74.2565380273205,36,36,36
2018,"Wyatt Teller","G","Virginia Tech","5",166,"Buffalo Bills","#00338d","#c60c30","#0c2e82","#d50a0a","AFC East","Buffalo","Bills","Buffalo Bills","http://content.sportslogos.net/logos/7/149/thumbs/n0fd1z6xmhigb0eej3323ebwq.gif",113.417222799395,62.1137185660994,31.5186574293015,270.132634501852,113,118,117
2018,"Justin Jones","DT","NC State","3",84,"Los Angeles Chargers","#002244","#0073cf","#ffb612","#001532","AFC West","Los Angeles","Chargers","Los Angeles Chargers","http://content.sportslogos.net/logos/7/6446/thumbs/644624152017.gif",164.32453876653,93.1417071817155,43.5492277139725,399.808220865824,164,165,163
2018,"Marquis Haynes","DE","Ole Miss","4",136,"Carolina Panthers","#0085ca","#000000","#bfc0bf",NA,"NFC South","Carolina","Panthers","Carolina Panthers","http://content.sportslogos.net/logos/7/174/thumbs/f1wggq2k8ql88fe33jzhw641u.gif",146.840624233121,78.6454084503169,40.7688413194562,343.550799375887,149,147,151
2018,"Austin Corbett","G","Nevada","2",33,"Cleveland Browns","#fb4f14","#22150c","#a5acaf","#d32f1e","AFC North","Cleveland","Browns","Cleveland Browns","http://content.sportslogos.net/logos/7/155/thumbs/15578552015.gif",51.3156840721205,26.2255454556843,14.4697990156737,115.280728205289,48,49,47
2018,"Chase Litton","QB","Marshall","Undrafted",257,"Undrafted",NA,NA,NA,NA,NA,NA,NA,NA,NA,182.880732307757,111.653848006859,43.2352313143963,470.345001856824,167,167,160
2018,"Holton Hill","CB","Texas","Undrafted",257,"Undrafted",NA,NA,NA,NA,NA,NA,NA,NA,NA,107.710834309516,58.2538582819126,29.3170766760236,253.647022215066,105,107,105
2018,"Chad Thomas","DE","Miami","3",67,"Cleveland Browns","#fb4f14","#22150c","#a5acaf","#d32f1e","AFC North","Cleveland","Browns","Cleveland Browns","http://content.sportslogos.net/logos/7/155/thumbs/15578552015.gif",128.773099822994,69.4832769451671,35.9374268715974,298.631614757036,129,128,137
2018,"Mark Walton","RB","Miami","4",112,"Cincinnati Bengals","#000000","#fb4f14","#d32f1e",NA,"AFC North","Cincinnati","Bengals","Cincinnati Bengals","http://content.sportslogos.net/logos/7/154/thumbs/403.gif",114.553957413736,61.7823852806125,31.4045521446767,264.89804780434,114,113,116
2018,"Deadrin Senat","DT","South Florida","3",90,"Atlanta Falcons","#a71930","#000000","#a5acaf","#a30d2d","NFC South","Atlanta","Falcons","Atlanta Falcons","http://content.sportslogos.net/logos/7/173/thumbs/299.gif",163.280426542193,87.4360632687027,43.8112349065,375.52505237711,162,154,165
2018,"Josh Adams","RB","Notre Dame","Undrafted",257,"Undrafted",NA,NA,NA,NA,NA,NA,NA,NA,NA,154.38730525095,96.0249024818638,36.1499948371508,394.660159921354,151,161,138
2018,"Mike White","QB","Western Kentucky","5",171,"Dallas Cowboys","#002244","#b0b7bc","#acc0c6","#a5acaf","NFC East","Dallas","Cowboys","Dallas Cowboys","http://content.sportslogos.net/logos/7/165/thumbs/406.gif",114.900477626722,61.2502018791294,31.03714005642,269.942165507156,116,117,112
2018,"R.J. McIntosh","DT","Miami","5",139,"New York Giants","#0b2265","#a71930","#a5acaf","#012352","NFC East","New York","Giants","New York Giants","http://content.sportslogos.net/logos/7/166/thumbs/919.gif",123.869813143241,68.7714244920413,32.4866528172955,296.841546877709,128,127,123
2018,"Michael Dickson","P","Texas","5",149,"Seattle Seahawks","#002244","#69be28","#a5acaf","#001532","NFC West","Seattle","Seahawks","Seattle Seahawks","http://content.sportslogos.net/logos/7/180/thumbs/pfiobtreaq7j0pzvadktsc6jv.gif",112.970106781765,61.9884500983422,30.8895739065561,267.502944601583,112,116,111
2018,"DaeSean Hamilton","WR","Penn State","4",113,"Denver Broncos","#002244","#fb4f14","#00234c","#ff5200","AFC West","Denver","Broncos","Denver Broncos","http://content.sportslogos.net/logos/7/161/thumbs/9ebzja2zfeigaziee8y605aqp.gif",102.494978153198,55.0928784960023,28.4755824443035,238.97141472722,98,103,100
2018,"Kyle Lauletta","QB","Richmond","4",108,"New York Giants","#0b2265","#a71930","#a5acaf","#012352","NFC East","New York","Giants","New York Giants","http://content.sportslogos.net/logos/7/166/thumbs/919.gif",67.6091164283611,33.9796014795441,19.5835898393825,150.777887569261,60,60,63
2018,"John Kelly","RB","Tennessee","6",176,"Los Angeles Rams","#002244","#b3995d","#001532","#af925d","NFC West","Los Angeles","Rams","Los Angeles Rams","http://content.sportslogos.net/logos/7/5941/thumbs/594179532017.gif",123.49104867517,67.9118768055476,32.5448790913971,291.536449965707,127,126,124
2018,"Kyzir White","S","West Virginia","4",119,"Los Angeles Chargers","#002244","#0073cf","#ffb612","#001532","AFC West","Los Angeles","Chargers","Los Angeles Chargers","http://content.sportslogos.net/logos/7/6446/thumbs/644624152017.gif",81.9697814229536,44.8550544551039,22.6809007606812,191.478671319247,80,84,81
2018,"Kemoko Turay","DE","Rutgers","2",52,"Indianapolis Colts","#002c5f","#a5acaf","#013369","#9ba1a2","AFC South","Indianapolis","Colts","Indianapolis Colts","http://content.sportslogos.net/logos/7/158/thumbs/593.gif",71.5574865954158,36.9506138261072,19.2450161588756,161.120458270092,67,66,61
2018,"Ian Thomas","TE","Indiana","4",101,"Carolina Panthers","#0085ca","#000000","#bfc0bf",NA,"NFC South","Carolina","Panthers","Carolina Panthers","http://content.sportslogos.net/logos/7/174/thumbs/f1wggq2k8ql88fe33jzhw641u.gif",85.8674665317314,45.1807791538453,23.9570370280506,195.024547427282,87,87,89
2018,"Nathan Shepherd","DT","Fort Hays State","3",72,"New York Jets","#125740","#000000","#FFFFFF",NA,"AFC East","New York","Jets","New York Jets","http://content.sportslogos.net/logos/7/152/thumbs/15291162019.gif",70.0559487061439,36.6103600305497,19.4584462049534,158.7511936087,63,64,62
2018,"Geron Christian","OT","Louisville","3",74,"Washington Redskins","#773141","#ffb612","#000000","#5b2b2f","NFC East","Washington","Redskins","Washington Redskins","http://content.sportslogos.net/logos/7/168/thumbs/im5xz2q9bjbg44xep08bf5czq.gif",74.3362967045944,38.4819430347098,21.0224458833017,167.769501484715,70,70,70
2018,"Jessie Bates","S","Wake Forest","2",54,"Cincinnati Bengals","#000000","#fb4f14","#d32f1e",NA,"AFC North","Cincinnati","Bengals","Cincinnati Bengals","http://content.sportslogos.net/logos/7/154/thumbs/403.gif",51.5685551279355,25.636955837526,15.2440250686544,113.892541004256,49,48,52
2018,"Jalyn Holmes","DE","Ohio State","4",102,"Minnesota Vikings","#4f2683","#ffc62f","#e9bf9b","#000000","NFC North","Minnesota","Vikings","Minnesota Vikings","http://content.sportslogos.net/logos/7/172/thumbs/17227042013.gif",112.025503098075,64.4604804073931,29.2437856422059,275.747229259942,110,122,104
2018,"Oren Burks","LB","Vanderbilt","3",88,"Green Bay Packers","#203731","#ffb612","#1c2d25","#eead1e","NFC North","Green Bay","Packers","Green Bay Packers","http://content.sportslogos.net/logos/7/171/thumbs/dcy03myfhffbki5d7il3.gif",140.394347081209,73.8907862300462,39.6172573773945,324.743047006595,143,141,148
2018,"Cedrick Wilson","WR","Boise State","6",208,"Dallas Cowboys","#002244","#b0b7bc","#acc0c6","#a5acaf","NFC East","Dallas","Cowboys","Dallas Cowboys","http://content.sportslogos.net/logos/7/165/thumbs/406.gif",148.579466151622,82.9580632482606,40.0547042087243,359.169937744843,150,149,149
2018,"Terrell Edmunds","S","Virginia Tech","1",28,"Pittsburgh Steelers","#000000","#ffb612","#c60c30","#00539b","AFC North","Pittsburgh","Steelers","Pittsburgh Steelers","http://content.sportslogos.net/logos/7/156/thumbs/970.gif",116.553649438405,61.4657609398928,32.890204643934,267.058019810643,121,115,126
2018,"Tegray Scales","LB","Indiana","Undrafted",257,"Undrafted",NA,NA,NA,NA,NA,NA,NA,NA,NA,137.885680860868,78.8774392289441,34.3710227065491,338.288806180945,141,146,131
2018,"Keke Coutee","WR","Texas Tech","4",103,"Houston Texans","#03202f","#a71930","#00071c","#a30d2d","AFC South","Houston","Texans","Houston Texans","http://content.sportslogos.net/logos/7/157/thumbs/570.gif",130.280788340056,73.8294583196235,34.2895433310491,314.54091523619,131,135,130
2018,"Breeland Speaks","DE","Ole Miss","2",46,"Kansas City Chiefs","#e31837","#ffb612","#000000","#eead1e","AFC West","Kansas City","Chiefs","Kansas City Chiefs","http://content.sportslogos.net/logos/7/162/thumbs/857.gif",135.704837199203,75.2350049823927,35.3769221351701,321.679174059068,139,139,132
2018,"Scott Quessenberry","C","UCLA","5",155,"Los Angeles Chargers","#002244","#0073cf","#ffb612","#001532","AFC West","Los Angeles","Chargers","Los Angeles Chargers","http://content.sportslogos.net/logos/7/6446/thumbs/644624152017.gif",137.518116154343,76.7746119222813,35.8343419027619,328.014996132882,140,142,135
2018,"Nyheim Hines","RB","NC State","4",104,"Indianapolis Colts","#002c5f","#a5acaf","#013369","#9ba1a2","AFC South","Indianapolis","Colts","Indianapolis Colts","http://content.sportslogos.net/logos/7/158/thumbs/593.gif",103.011775934561,53.7161737910766,28.2593757054725,235.811546573133,100,101,99
2018,"Fred Warner","LB","BYU","3",70,"San Francisco 49ers","#aa0000","#b3995d","#000000","#a5acaf","NFC West","San Francisco","49ers","San Francisco 49ers","http://content.sportslogos.net/logos/7/179/thumbs/17994552009.gif",83.2105175957988,43.624207720979,23.0564908177516,191.230024914674,83,83,82
2018,"Shaquem Griffin","LB","Central Florida","5",141,"Seattle Seahawks","#002244","#69be28","#a5acaf","#001532","NFC West","Seattle","Seahawks","Seattle Seahawks","http://content.sportslogos.net/logos/7/180/thumbs/pfiobtreaq7j0pzvadktsc6jv.gif",92.7384696356127,47.6439812341934,26.4042371344337,210.659775417943,93,93,93
2018,"Kalen Ballage","RB","Arizona State","4",131,"Miami Dolphins","#008e97","#f58220","#005778",NA,"AFC East","Miami","Dolphins","Miami Dolphins","http://content.sportslogos.net/logos/7/150/thumbs/15073062018.gif",134.846622111166,71.0248680842961,37.0481489780175,305.408815239597,136,131,141
2018,"Rashaan Gaulden","CB","Tennessee","3",85,"Carolina Panthers","#0085ca","#000000","#bfc0bf",NA,"NFC South","Carolina","Panthers","Carolina Panthers","http://content.sportslogos.net/logos/7/174/thumbs/f1wggq2k8ql88fe33jzhw641u.gif",103.051066837246,54.6760476649669,27.952116775223,236.1064020359,101,102,98
2018,"Dane Cruikshank","CB","Arizona","5",152,"Tennessee Titans","#002244","#4b92db","#c60c30","#a5acaf","AFC South","Tennessee","Titans","Tennessee Titans","http://content.sportslogos.net/logos/7/160/thumbs/1053.gif",161.86781008762,88.177293135951,43.0879063512578,377.001068059333,158,156,158
2018,"Dalton Schultz","TE","Stanford","4",137,"Dallas Cowboys","#002244","#b0b7bc","#acc0c6","#a5acaf","NFC East","Dallas","Cowboys","Dallas Cowboys","http://content.sportslogos.net/logos/7/165/thumbs/406.gif",120.608751095804,63.7630355764391,33.246953108524,276.797728546186,124,123,129
2018,"B.J. Hill","DT","NC State","3",69,"New York Giants","#0b2265","#a71930","#a5acaf","#012352","NFC East","New York","Giants","New York Giants","http://content.sportslogos.net/logos/7/166/thumbs/919.gif",78.5116480633683,40.7493839625104,21.6773933668864,177.144194862212,76,75,73
2018,"Parry Nickerson","CB","Tulane","6",179,"New York Jets","#125740","#000000","#FFFFFF",NA,"AFC East","New York","Jets","New York Jets","http://content.sportslogos.net/logos/7/152/thumbs/15291162019.gif",134.884037454222,71.4316221054609,37.3307922622408,310.428708056296,137,134,143
2018,"Will Richardson","OT","NC State","4",129,"Jacksonville Jaguars","#000000","#006778","#9f792c","#d7a22a","AFC South","Jacksonville","Jaguars","Jacksonville Jaguars","http://content.sportslogos.net/logos/7/159/thumbs/15988562013.gif",134.083670609197,73.1351139702144,36.2665399584595,316.833063985358,135,136,139
